\relax 
\providecommand\hyper@newdestlabel[2]{}
\providecommand\HyperFirstAtBeginDocument{\AtBeginDocument}
\HyperFirstAtBeginDocument{\ifx\hyper@anchor\@undefined
\global\let\oldcontentsline\contentsline
\gdef\contentsline#1#2#3#4{\oldcontentsline{#1}{#2}{#3}}
\global\let\oldnewlabel\newlabel
\gdef\newlabel#1#2{\newlabelxx{#1}#2}
\gdef\newlabelxx#1#2#3#4#5#6{\oldnewlabel{#1}{{#2}{#3}}}
\AtEndDocument{\ifx\hyper@anchor\@undefined
\let\contentsline\oldcontentsline
\let\newlabel\oldnewlabel
\fi}
\fi}
\global\let\hyper@last\relax 
\gdef\HyperFirstAtBeginDocument#1{#1}
\providecommand*\HyPL@Entry[1]{}
\HyPL@Entry{0<</S/D>>}
\select@language{english}
\@writefile{toc}{\select@language{english}}
\@writefile{lof}{\select@language{english}}
\@writefile{lot}{\select@language{english}}
\newlabel{fig:rightIcon}{{}{1}{}{Doc-Start}{}}
\HyPL@Entry{1<</S/D>>}
\@writefile{toc}{\contentsline {section}{\numberline {1}Introduction}{1}{section.1}}
\@writefile{toc}{\contentsline {section}{\numberline {2}Background}{1}{section.2}}
\@writefile{lof}{\contentsline {figure}{\numberline {1}{\ignorespaces Examplary samples of letters from learning set}}{2}{figure.1}}
\@writefile{lof}{\contentsline {subfigure}{\numberline{(a)}{\ignorespaces {A}}}{2}{figure.1}}
\@writefile{lof}{\contentsline {subfigure}{\numberline{(b)}{\ignorespaces {B}}}{2}{figure.1}}
\@writefile{lof}{\contentsline {subfigure}{\numberline{(c)}{\ignorespaces {C}}}{2}{figure.1}}
\@writefile{lof}{\contentsline {subfigure}{\numberline{(d)}{\ignorespaces {D}}}{2}{figure.1}}
\newlabel{fig:learningSet}{{1}{2}{Examplary samples of letters from learning set}{figure.1}{}}
\@writefile{toc}{\contentsline {section}{\numberline {3}Implementation}{2}{section.3}}
\@writefile{toc}{\contentsline {section}{\numberline {4}References}{2}{section.4}}
