\relax 
\providecommand\hyper@newdestlabel[2]{}
\providecommand\HyperFirstAtBeginDocument{\AtBeginDocument}
\HyperFirstAtBeginDocument{\ifx\hyper@anchor\@undefined
\global\let\oldcontentsline\contentsline
\gdef\contentsline#1#2#3#4{\oldcontentsline{#1}{#2}{#3}}
\global\let\oldnewlabel\newlabel
\gdef\newlabel#1#2{\newlabelxx{#1}#2}
\gdef\newlabelxx#1#2#3#4#5#6{\oldnewlabel{#1}{{#2}{#3}}}
\AtEndDocument{\ifx\hyper@anchor\@undefined
\let\contentsline\oldcontentsline
\let\newlabel\oldnewlabel
\fi}
\fi}
\global\let\hyper@last\relax 
\gdef\HyperFirstAtBeginDocument#1{#1}
\providecommand*\HyPL@Entry[1]{}
\HyPL@Entry{0<</S/D>>}
\select@language{english}
\@writefile{toc}{\select@language{english}}
\@writefile{lof}{\select@language{english}}
\@writefile{lot}{\select@language{english}}
\citation{cppreference}
\citation{opencv}
\HyPL@Entry{1<</S/D>>}
\@writefile{toc}{\contentsline {section}{\numberline {1}Introduction}{1}{section.1}}
\@writefile{toc}{\contentsline {section}{\numberline {2}Background}{1}{section.2}}
\@writefile{lof}{\contentsline {figure}{\numberline {1}{\ignorespaces Examplary samples of letters from teaching set}}{1}{figure.1}}
\newlabel{fig:learningSet}{{1}{1}{Examplary samples of letters from teaching set}{subfigure.2.4}{}}
\@writefile{toc}{\contentsline {section}{\numberline {3}Implementation}{1}{section.3}}
\citation{skinColour}
\@writefile{lof}{\contentsline {figure}{\numberline {2}{\ignorespaces Application window}}{2}{figure.2}}
\@writefile{lof}{\contentsline {subfigure}{\numberline{(a)}{\ignorespaces {A}}}{2}{figure.2}}
\@writefile{lof}{\contentsline {subfigure}{\numberline{(b)}{\ignorespaces {B}}}{2}{figure.2}}
\@writefile{lof}{\contentsline {subfigure}{\numberline{(c)}{\ignorespaces {C}}}{2}{figure.2}}
\@writefile{lof}{\contentsline {subfigure}{\numberline{(d)}{\ignorespaces {D}}}{2}{figure.2}}
\newlabel{fig:application}{{2}{2}{Application window}{figure.2}{}}
\@writefile{toc}{\contentsline {subsection}{\numberline {3.1}Classifier model}{2}{subsection.3.1}}
\@writefile{toc}{\contentsline {subsection}{\numberline {3.2}Preprocessing of the image}{2}{subsection.3.2}}
\citation{preprocessing}
\@writefile{toc}{\contentsline {subsubsection}{\numberline {3.2.1}Extraction of hand image}{3}{subsubsection.3.2.1}}
\@writefile{lof}{\contentsline {figure}{\numberline {3}{\ignorespaces Result image of hand extraction}}{3}{figure.3}}
\newlabel{fig:handImage}{{3}{3}{Result image of hand extraction}{figure.3}{}}
\@writefile{toc}{\contentsline {subsubsection}{\numberline {3.2.2}Feature extraction}{3}{subsubsection.3.2.2}}
\@writefile{lof}{\contentsline {figure}{\numberline {4}{\ignorespaces Examplary samples of letters from teaching set}}{3}{figure.4}}
\newlabel{fig:featureExtraction}{{4}{3}{Examplary samples of letters from teaching set}{subfigure.5.4}{}}
\citation{neuralNetworkGestures}
\@writefile{toc}{\contentsline {section}{\numberline {4}Summary}{4}{section.4}}
\@writefile{toc}{\contentsline {subsection}{\numberline {4.1}Conclusions}{4}{subsection.4.1}}
\@writefile{toc}{\contentsline {subsection}{\numberline {4.2}Further development and improvement}{4}{subsection.4.2}}
\bibstyle{IEEEtran}
\bibdata{references}
